{
  "cluster": "nonprod-ECS-ECSCluster-W68V9ZHCS399",
  "serviceName": "point-AwsService-pre",
  "taskDefinition": "point-AwsTask-pre",
  "desiredCount": 2,
  "clientToken": "abc123",
  "role": "ecsServiceRole",
  "loadBalancers": [
    {
      "targetGroupArn": "arn:aws:elasticloadbalancing:eu-west-1:020551178989:targetgroup/alb-point-pre/c60c70ddb3a203e2",
      "containerName": "point-AwsTask-pre",
      "containerPort": 8080
    }
  ],
  "deploymentConfiguration": {
    "maximumPercent": 150,
    "minimumHealthyPercent": 50
  }
}