{
  "cluster": "nonprod-ECS-ECSCluster-W68V9ZHCS399",
  "serviceName": "point-AwsService-sit",
  "taskDefinition": "point-AwsTask-sit",
  "desiredCount": 1,
  "clientToken": "abc123",
  "role": "ecsServiceRole",
  "loadBalancers": [
    {
      "targetGroupArn": "arn:aws:elasticloadbalancing:eu-west-1:020551178989:targetgroup/alb-point-sit/fe8bd1d7f643155e",
      "containerName": "point-AwsTask-sit",
      "containerPort": 8080
    }
  ],
  "deploymentConfiguration": {
    "maximumPercent": 200,
    "minimumHealthyPercent": 100
  }
}